…
## 

``` r
#Find number of distinct stations
transit_data %>% 
  distinct(line, station_name) %>%
  distinct
```

    ## # A tibble: 465 × 2
    ##    line     station_name            
    ##    <chr>    <chr>                   
    ##  1 4 Avenue 25th St                 
    ##  2 4 Avenue 36th St                 
    ##  3 4 Avenue 45th St                 
    ##  4 4 Avenue 53rd St                 
    ##  5 4 Avenue 59th St                 
    ##  6 4 Avenue 77th St                 
    ##  7 4 Avenue 86th St                 
    ##  8 4 Avenue 95th St                 
    ##  9 4 Avenue 9th St                  
    ## 10 4 Avenue Atlantic Av-Barclays Ctr
    ## # … with 455 more rows

``` r
#465 rows were returned.

#How many stations are ADA compliant?
transit_data %>%
  filter(ada == TRUE) %>% 
  select(line, station_name) %>% 
  distinct
```

    ## # A tibble: 84 × 2
    ##    line            station_name                  
    ##    <chr>           <chr>                         
    ##  1 4 Avenue        Atlantic Av-Barclays Ctr      
    ##  2 4 Avenue        DeKalb Av                     
    ##  3 4 Avenue        Pacific St                    
    ##  4 42nd St Shuttle Grand Central                 
    ##  5 6 Avenue        34th St                       
    ##  6 6 Avenue        47-50th Sts Rockefeller Center
    ##  7 6 Avenue        Church Av                     
    ##  8 63rd Street     21st St                       
    ##  9 63rd Street     Lexington Av                  
    ## 10 63rd Street     Roosevelt Island              
    ## # … with 74 more rows
…
``` r
#Reformat data so that route number and route name are distinct variables.
transit_data %>% 
  pivot_longer(
    route1:route11,
    names_to = "route_num",
    values_to = "route") %>% 
  filter(route == "A") %>% 
  select(line, station_name) %>% 
  distinct
```

    ## # A tibble: 60 × 2
    ##    line            station_name                 
    ##    <chr>           <chr>                        
    ##  1 42nd St Shuttle Times Square                 
    ##  2 8 Avenue        125th St                     
    ##  3 8 Avenue        145th St                     
    ##  4 8 Avenue        14th St                      
    ##  5 8 Avenue        168th St - Washington Heights
    ##  6 8 Avenue        175th St                     
    ##  7 8 Avenue        181st St                     
    ##  8 8 Avenue        190th St                     
    ##  9 8 Avenue        34th St                      
    ## 10 8 Avenue        42nd St                      
    ## # … with 50 more rows
…
